1.3863
1.7349
2.1865
2.7472
3.7519
5.0231
6.4785
8.0026
9.4921
10.825
11.868
12.487
12.587
12.143
11.191
9.8042
8.0635
6.0635
3.9312
1.7989
-0.2328
-2.1058
-3.7831
-5.2328
-6.4392
-7.3968
-8.1217
-8.6667
-9.1005
-9.4603
-9.7354
-9.9153
-10.037
-10.151
-10.235
-10.259
-10.219
-10.055
-9.9178
-9.3728
-7.8728
-2.1381
10.648
30.333
53.143
72.429
83.952
86.571
80.095
65
44.905
21.762
2.1129
-10.226
-14.627
-13.883
-11.345
-10.661
-10.318
-10.424
-10.43
-10.377
-10.498
-10.687
-10.767
-10.571
-9.7884
-8.9894
-8.1481
-7.3651
-6.6984
-6.1587
-5.7196
-5.3492
-5.0106
-4.672
-4.3228
-3.9788
-3.6508
-3.328
-3.0265
-2.7884
-2.6402
-2.5608
-2.5185
-2.5026
-2.4974
-2.4762
-2.4233
-2.3333
-2.1746
-1.8942
-1.4497
-0.8201
0.0476
1.2063
2.672
4.4127
6.4021
8.6138
10.989
13.429
15.847
18.191
20.434
22.566
24.593
26.519
28.339
30.042
31.63
33.079
34.318
35.233
35.73
35.762
35.328
34.439
33.116
31.402
29.386
27.169
24.841
22.46
20.074
17.714
15.413
13.196
11.095
9.127
7.3122
5.6772
4.2593
3.0741
2.1164
1.3651
0.7937
0.3545
-0.0159
-0.381
-0.7672
-1.164
-1.5344
-1.8413
-2.0582
-2.164
-2.1217
-1.8889
-1.4233
-0.7143
0.1799
1.1534
2.0106
2.5026
2.3069
1.0582
-1.6243
-6.0688
-12.508
-21.016
-31.64
-44.355
-59.095
-75.651
-93.704
-112.84
-136.18
-157.4
-175.94
-191.26
-202.99
-211.1
-214.26
-208.73
-200.27
-189.04
-175.27
-159.16
-140.76
-121.66
-102.47
-84.524
-68.066
-53.221
-40.154
-28.895
-19.514
-11.965
-5.3666
0.2183
4.7695
8.3022
10.862
12.668
13.93
14.839
15.57
16.272
17.071
18.069
19.342
20.945
22.914
25.272
27.98
30.989
34.238
37.66
41.437
45.549
49.97
54.715
59.808
64.805
69.783
74.602
79.379
86.225
93.312
100.58
108.36
116.48
124.73
132.88
138.69
143.83
148.13
151.48
153.8
155.08
155.33
154.53
152.7
149.92
146.29
141.94
136.9
131.27
125.12
118.58
111.76
104.79
97.788
90.878
84.169
77.788
71.038
65.14
60.091
55.86
52.376
49.352
46.671
45.02
43.169
41.118
38.886
36.503
34.185
31.981
29.972
28.249
26.881
25.9
25.302
25.058
25.112
25.383
25.768
26.158
26.462
26.62
26.61
26.423
26.059
25.527
24.856
24.083
23.244
22.367
21.479
20.603
19.764
18.989
18.299
17.703
17.202
16.79
16.46
16.2
15.986
15.799
15.623
15.452
15.287
15.128
14.973
14.814
14.64
14.437
14.196
13.905
13.553
13.137
12.664
12.143
11.591
11.026
10.473
9.9647
9.5279
9.1799
8.9253
8.766
8.7049
8.739
8.8536
9.0188
9.1946
9.3439
9.4386
9.4621
9.3992
9.2322
8.9524
8.5697
8.1117
7.6126
7.0994
6.5914
6.1041
5.6555
5.2681
4.9588
4.7319
4.5802
4.4962
4.4785
4.5279
4.6325
4.771
4.9201
5.0648
5.2466
5.4248
5.5672
5.6791
5.8035
5.995
6.308
6.7491
7.3963
8.2439
9.3238
10.616
12.061
13.563
15.021
16.339
17.471
18.302
18.741
18.746
18.323
17.482
16.254
14.698
12.905
10.984
9.0476
7.2063
5.5556
4.1693
3.078
2.2988
1.8279
1.6279
1.7284
1.8712
1.9559
1.9202
1.7841
1.5619
1.4286
1.4286
1.9048
3.3333
6.4762
14.952
28.429
45.429
57.952
64.476
63.905
59.286
47.952
31.857
13.191
-0
-6.9048
-7.6667
-6.3333
-4
-2.2381
-1.5714
-1.9048
-2.5714
-2.9048
-2.7619
-2
-0.7619
0.5238
1.5238
2.0952
2.3333
2.381
2.381
2.3571
2.25
2.1
1.9583