  5.4930000e+003
  5.5130000e+003
  5.4650000e+003
  5.4770000e+003
  5.4930000e+003
  5.5130000e+003
  5.5130000e+003
  5.5610000e+003
  5.4890000e+003
  5.4730000e+003
  5.4810000e+003
  5.5050000e+003
  5.5690000e+003
  5.5770000e+003
  5.3970000e+003
  5.4330000e+003
  5.4450000e+003
  5.5010000e+003
  5.4890000e+003
  5.4770000e+003
  5.4610000e+003
  5.3690000e+003
  5.4330000e+003
  5.5090000e+003
  5.4930000e+003
  5.4810000e+003
  5.4610000e+003
  5.4650000e+003
  5.4850000e+003
  5.4970000e+003
  5.5050000e+003
  5.5250000e+003
  5.5130000e+003
  5.5290000e+003
  5.5290000e+003
  5.5170000e+003
  5.4850000e+003
  5.4970000e+003
  5.5250000e+003
  5.6090000e+003
  5.5530000e+003
  5.4530000e+003
  5.4810000e+003
  5.4810000e+003
  5.5210000e+003
  5.5250000e+003
  5.5450000e+003
  5.5610000e+003
  5.4850000e+003
  5.4770000e+003
  5.5090000e+003
  5.5010000e+003
  5.4530000e+003
  5.4450000e+003
  5.4210000e+003
  5.4090000e+003
  5.4610000e+003
  5.4570000e+003
  5.4850000e+003
  5.4970000e+003
  5.5530000e+003
  5.5370000e+003
  5.5250000e+003
  5.5330000e+003
  5.5210000e+003
  5.5570000e+003
  5.5410000e+003
  5.5130000e+003
  5.5610000e+003
  5.5290000e+003
  5.5450000e+003
  5.5410000e+003
  5.5330000e+003
  5.5330000e+003
  5.5250000e+003
  5.5610000e+003
  5.4690000e+003
  5.4370000e+003
  5.4410000e+003
  5.4250000e+003
  5.4970000e+003
  5.4570000e+003
  5.4050000e+003
  5.9210000e+003
  1.1909000e+004
  1.2485000e+004
  1.1245000e+004
  1.0673000e+004
  1.0221000e+004
  9.8290000e+003
  9.5810000e+003
  9.1450000e+003
  9.5530000e+003
  9.5050000e+003
  9.4010000e+003
  9.1890000e+003
  9.1050000e+003
  9.0090000e+003
  8.9530000e+003
  8.8410000e+003
  8.7890000e+003
  8.7410000e+003
  8.6730000e+003
  8.6650000e+003
  8.6010000e+003
  8.5930000e+003
  8.6090000e+003
  8.6250000e+003
  8.6170000e+003
  8.5730000e+003
  8.5610000e+003
  8.5610000e+003
  8.5490000e+003
  8.5330000e+003
  8.5050000e+003
  8.5010000e+003
  8.5650000e+003
  8.5770000e+003
  8.5210000e+003
  8.5250000e+003
  8.5210000e+003
  8.6050000e+003
  8.5930000e+003
  8.5970000e+003
  8.5690000e+003
  8.5890000e+003
  8.5610000e+003
  8.5490000e+003
  8.5370000e+003
  8.5370000e+003
  8.5570000e+003
  8.6570000e+003
  8.6690000e+003
  8.6410000e+003
  8.6610000e+003
  8.6010000e+003
  8.5610000e+003
  8.5530000e+003
  8.5290000e+003
  8.5130000e+003
  8.5210000e+003
  8.5210000e+003
  8.5690000e+003
  8.5930000e+003
  8.5610000e+003
  8.4890000e+003
  8.5010000e+003
  8.4970000e+003
  8.4890000e+003
  8.5170000e+003
  8.5490000e+003
  8.5050000e+003
  8.5010000e+003
  8.4810000e+003
  8.5170000e+003
  8.5210000e+003
  8.4810000e+003
  8.4570000e+003
  8.4530000e+003
  8.4650000e+003
  8.4690000e+003
  8.4850000e+003
  8.4770000e+003
  8.4690000e+003
  8.4690000e+003
  8.4490000e+003
  8.4690000e+003
  8.5250000e+003
  8.5130000e+003
  8.5090000e+003
  8.5450000e+003
  8.5250000e+003
  8.5370000e+003
  8.5210000e+003
  8.5010000e+003
  8.4770000e+003
  8.4770000e+003
  8.4970000e+003
  8.5210000e+003
  8.5850000e+003
  8.5290000e+003
  8.5290000e+003
  8.5170000e+003
  8.5130000e+003
  8.5090000e+003
  8.5090000e+003
  8.4930000e+003
  8.4970000e+003
  8.4930000e+003
  8.4770000e+003
  8.5170000e+003
  8.5370000e+003
  8.5170000e+003
  8.5290000e+003
  8.5370000e+003
  8.5290000e+003
  8.5210000e+003
  8.5770000e+003
  8.5770000e+003
  8.5530000e+003
  8.5290000e+003
  8.5050000e+003
  8.4930000e+003
  8.5250000e+003
  8.5450000e+003
  8.5090000e+003
  8.4890000e+003
  8.5250000e+003
  8.5050000e+003
  8.5050000e+003
  8.5090000e+003
  8.5010000e+003
  8.5130000e+003
  8.5650000e+003
  8.5450000e+003
  8.6090000e+003
  8.5490000e+003
  8.5970000e+003
  8.5610000e+003
  8.4890000e+003
  8.5010000e+003
  8.5330000e+003
  8.5370000e+003
  8.5130000e+003
  8.5170000e+003
  8.4650000e+003
  8.4810000e+003
  8.5090000e+003
  8.6010000e+003
  8.5970000e+003
  8.5730000e+003
  8.5410000e+003
  8.4930000e+003
  8.5330000e+003
  8.5210000e+003
  8.5410000e+003
  7.6570000e+003
  5.5610000e+003
  4.9010000e+003
  4.8410000e+003
  4.9810000e+003
  5.1090000e+003
  5.2570000e+003
  5.3330000e+003
  5.4530000e+003
  5.6170000e+003
  5.6730000e+003
  5.7050000e+003
  5.7890000e+003
  5.8970000e+003
  5.9330000e+003
  6.0130000e+003
  5.9450000e+003
  5.8930000e+003
  5.9330000e+003
  6.0410000e+003
  6.0330000e+003
  6.0730000e+003
  6.1130000e+003
  6.1690000e+003
  6.1370000e+003
  6.0410000e+003
  6.0690000e+003
  6.1090000e+003
  6.1130000e+003
  6.1450000e+003
  6.1850000e+003
  6.1930000e+003
  6.1570000e+003
  6.1730000e+003
  6.1530000e+003
  6.1970000e+003
  6.1970000e+003
  6.1090000e+003
  6.1530000e+003
  6.2050000e+003
  6.2410000e+003
  6.2210000e+003
  6.1890000e+003
  6.2130000e+003
  6.1970000e+003
  6.1570000e+003
  6.1690000e+003
  6.2330000e+003
  6.1970000e+003
  6.2170000e+003
  6.2410000e+003
  6.2610000e+003
  6.2450000e+003
  6.1970000e+003
  6.0970000e+003
  6.1850000e+003
  6.2410000e+003
  6.1610000e+003
  6.1650000e+003
  6.1690000e+003
  6.1810000e+003
  6.1690000e+003
  6.1450000e+003
  6.1890000e+003
  6.1650000e+003
  6.1610000e+003
  6.1650000e+003
  6.2010000e+003
  6.1490000e+003
  6.1850000e+003
  6.1890000e+003
  6.1850000e+003
  6.1450000e+003
  6.1810000e+003
  6.1770000e+003
  6.1930000e+003
  6.2050000e+003
  6.1970000e+003
  6.2090000e+003
  6.2290000e+003
  6.2050000e+003
  6.2170000e+003
  6.2170000e+003
  6.2730000e+003
  6.0690000e+003
  6.0970000e+003
  6.1650000e+003
  6.2010000e+003
  6.2330000e+003
  6.2450000e+003
  6.2410000e+003
  6.2090000e+003
  6.2290000e+003
  6.2570000e+003
  6.2410000e+003
  6.2690000e+003
  6.2530000e+003
  6.2250000e+003
  6.1970000e+003
  6.2090000e+003
  6.1690000e+003
  6.2250000e+003
  6.2170000e+003
  6.1490000e+003
  6.1730000e+003
  6.2050000e+003
  6.2010000e+003
  6.1930000e+003
  6.2090000e+003
  6.2130000e+003
  6.2250000e+003
  6.2090000e+003
  6.2370000e+003
  6.2250000e+003
  6.2130000e+003
  6.2170000e+003
  6.2650000e+003
  6.2930000e+003
  6.1970000e+003
  6.1530000e+003
  6.2010000e+003
  6.2050000e+003
  6.2050000e+003
  6.2610000e+003
  6.2410000e+003
  6.2010000e+003
  6.1810000e+003
  6.1970000e+003
  6.1450000e+003
  6.1890000e+003
  6.1970000e+003
  6.2330000e+003	