This is BibTeX, Version 0.99d (TeX Live 2016)
Capacity: max_strings=35307, hash_size=35307, hash_prime=30011
The top-level auxiliary file: diploma.aux
The style file: ugost2008.bst
Reallocated wiz_functions (elt_size=4) to 6000 items from 3000.
Database file #1: diploma.bib
Repeated entry---line 461 of file diploma.bib
 : @inproceedings{Kim2001
 :                       ,
I'm skipping whatever remains of this entry
Repeated entry---line 711 of file diploma.bib
 : @inproceedings{Zhang2012
 :                         ,
I'm skipping whatever remains of this entry
You're missing a field name---line 939 of file diploma.bib
 :  
 :  %url       = {http://doi.ieeecomputersociety.org/10.1109/HOTCHIPS.2015.7477467},
(Error may have been on previous line)
I'm skipping whatever remains of this entry
Repeated entry---line 1003 of file diploma.bib
 : @inproceedings{Takahashi2009
 :                             ,
I'm skipping whatever remains of this entry
Repeated entry---line 1043 of file diploma.bib
 : @inproceedings{Srikanthan2011
 :                              ,
I'm skipping whatever remains of this entry
Repeated entry---line 1063 of file diploma.bib
 : @inproceedings{Zhang2012
 :                         ,
I'm skipping whatever remains of this entry
A bad cross reference---entry "MueenKS09"
refers to entry "DBLP:conf/icdm/2009", which doesn't exist
A bad cross reference---entry "AthitsosPPKG08"
refers to entry "DBLP:conf/sigmod/2008", which doesn't exist
A bad cross reference---entry "XiKSWR06"
refers to entry "DBLP:conf/icml/2006", which doesn't exist
A bad cross reference---entry "Rakthanmanon2012"
refers to entry "DBLP:conf/kdd/2012", which doesn't exist
A bad cross reference---entry "HuangDSWWY13"
refers to entry "DBLP:conf/hpcc/2013", which doesn't exist
A bad cross reference---entry "Kim2001"
refers to entry "DBLP:conf/icde/2001", which doesn't exist
A bad cross reference---entry "Sart2010"
refers to entry "DBLP:conf/icdm/2010", which doesn't exist
A bad cross reference---entry "Zhang2012"
refers to entry "DBLP:conf/icassp/2012", which doesn't exist
A bad cross reference---entry "Shabib2015"
refers to entry "DBLP:conf/icacci/2015", which doesn't exist
A bad cross reference---entry "Takahashi2009"
refers to entry "DBLP:conf/cisis/2009", which doesn't exist
A bad cross reference---entry "Wang2013"
refers to entry "DBLP:conf/fpga/2013", which doesn't exist
A bad cross reference---entry "Sodani2015"
refers to entry "DBLP:conf/hotchips/2015", which doesn't exist
A bad cross reference---entry "Movchan2015"
refers to entry "DBLP:conf/sisap/2015", which doesn't exist
A bad cross reference---entry "Zymbler2015"
refers to entry "DBLP:conf/adbis/2015", which doesn't exist
A bad cross reference---entry "Tarango2013"
refers to entry "DBLP:conf/codes/2013", which doesn't exist
Warning--I didn't find a database entry for "DBLP:conf/hpcc/2013"
Warning--I didn't find a database entry for "DBLP:conf/icdm/2009"
Warning--I didn't find a database entry for "DBLP:conf/sigmod/2008"
Warning--I didn't find a database entry for "DBLP:conf/icml/2006"
Warning--I didn't find a database entry for "DBLP:conf/icde/2001"
Warning--I didn't find a database entry for "DBLP:conf/icdm/2010"
Warning--I didn't find a database entry for "DBLP:conf/kdd/2012"
Warning--I didn't find a database entry for "DBLP:conf/icassp/2012"
Warning--I didn't find a database entry for "DBLP:conf/codes/2013"
Warning--I didn't find a database entry for "DBLP:conf/cisis/2009"
Warning--I didn't find a database entry for "DBLP:conf/fpga/2013"
Warning--I didn't find a database entry for "DBLP:conf/icacci/2015"
Warning--I didn't find a database entry for "DBLP:conf/sisap/2015"
Warning--I didn't find a database entry for "DBLP:conf/adbis/2015"
Warning--I didn't find a database entry for "DBLP:conf/hotchips/2015"
"russian" is a string literal, `language' is a missing field
---they aren't the same literal types for entry MueenKS09
while executing---line 2075 of file ugost2008.bst
Warning--yMueen  A   Keogh  E J   Shamlo  N B   2009   Finding Time Series Motifs in Disk Resident Data
"russian" is a string literal, `language' is a missing field
---they aren't the same literal types for entry AthitsosPPKG08
while executing---line 2075 of file ugost2008.bst
Warning--yAthitsos  V   Papapetrou  P   Potamias  M   Kollios  G   Gunopulos  D   2008   Approximate embedding based subsequence matching of time series
"russian" is a string literal, `language' is a missing field
---they aren't the same literal types for entry XiKSWR06
while executing---line 2075 of file ugost2008.bst
Warning--yXi  X   Keogh  E J   Shelton  C R   Wei  L   Ratanamahatana  C A   2006   Fast time series classification using numerosity reduction
"russian" is a string literal, `language' is a missing field
---they aren't the same literal types for entry KeoghLin2005
while executing---line 2075 of file ugost2008.bst
Warning--yKeogh  E   Lin  J   2005   Clustering of time series subsequences is meaningless implications for previous and future research
"russian" is a string literal, `language' is a missing field
---they aren't the same literal types for entry Rakthanmanon2012
while executing---line 2075 of file ugost2008.bst
Warning--yRakthanmanon  T   Campana  B J L   Mueen  A   Batista  G E A P A   Westover  M B   Zhu  Q   Zakaria  J   Keogh  E J   2012   Searching and mining trillions of time series subsequences under dynamic time warping
"russian" is a string literal, `language' is a missing field
---they aren't the same literal types for entry StaffordInsect
while executing---line 2075 of file ugost2008.bst
Warning--yStafford  C A   Walker  G P      Characterization and correlation of DC electrical penetration graph waveforms with feeding behavior of beet leafhopper Circulifer tenellus
"russian" is a string literal, `language' is a missing field
---they aren't the same literal types for entry HuangDSWWY13
while executing---line 2075 of file ugost2008.bst
Warning--yHuang  S   Dai  G   Sun  Y   Wang  Z   Wang  Y   Yang  H   2013   DTW Based Subsequence Similarity Search on AMD Heterogeneous Computing Platform
"russian" is a string literal, `language' is a missing field
---they aren't the same literal types for entry Ding2008
while executing---line 2075 of file ugost2008.bst
Warning--yHui  D   Goce  T   Peter  S   Xiaoyue  W   Eamonn  K   2008   Querying and Mining of Time Series Data Experimental Comparison of Representations and Distance Measures
"russian" is a string literal, `language' is a missing field
---they aren't the same literal types for entry Fu2008
while executing---line 2075 of file ugost2008.bst
Warning--yFu  A W   Keogh  E J   Lau  L Y H   Ratanamahatana  C A   Wong  R C   2008   Scaling and time warping in time series querying
"russian" is a string literal, `language' is a missing field
---they aren't the same literal types for entry Kim2001
while executing---line 2075 of file ugost2008.bst
Warning--yKim  S   Park  S   Chu  W W   2001   Index Based Approach for Similarity Search Supporting Time Warping in Large Sequence Databases
"russian" is a string literal, `language' is a missing field
---they aren't the same literal types for entry Sart2010
while executing---line 2075 of file ugost2008.bst
Warning--ySart  D   Mueen  A   Najjar  W A   Keogh  E J   Niennattrakul  V   2010   Accelerating Dynamic Time Warping Subsequence Search with GPUs and FPGAs
"russian" is a string literal, `language' is a missing field
---they aren't the same literal types for entry Zhang2012
while executing---line 2075 of file ugost2008.bst
Warning--yZhang  Y   Adl  K   Glass  J R   2012   Fast spoken query detection using lower bound Dynamic Time Warping on Graphical Processing Units
"russian" is a string literal, `language' is a missing field
---they aren't the same literal types for entry Shabib2015
while executing---line 2075 of file ugost2008.bst
Warning--yShabib  A   Narang  A   Niddodi  C P   Das  M   Pradeep  R   Shenoy  V   Auradkar  P   S  V T   Sitaram  D   2015   Parallelization of searching and mining time series data using Dynamic Time Warping
"russian" is a string literal, `language' is a missing field
---they aren't the same literal types for entry Takahashi2009
while executing---line 2075 of file ugost2008.bst
Warning--yTakahashi  N   Yoshihisa  T   Sakurai  Y   Kanazawa  M   2009   Parallelized Data Stream Processing System Using Dynamic Time Warping Distance
"russian" is a string literal, `language' is a missing field
---they aren't the same literal types for entry Srikanthan2011
while executing---line 2075 of file ugost2008.bst
Warning--ySrikanthan  S   Kumar  A   Gupta  R   2011   Implementing the dynamic time warping algorithm in multithreaded environments for real time and unsupervised pattern discovery
"russian" is a string literal, `language' is a missing field
---they aren't the same literal types for entry Wang2013
while executing---line 2075 of file ugost2008.bst
Warning--yWang  Z   Huang  S   Wang  L   Li  H   Wang  Y   Yang  H   2013   Accelerating subsequence similarity search based on dynamic time warping distance with FPGA
"russian" is a string literal, `language' is a missing field
---they aren't the same literal types for entry Sodani2015
while executing---line 2075 of file ugost2008.bst
Warning--ySodani  A   2015   Knights Landing KNL 2nd Generation Inteltextregistered Xeon Phi processor
"russian" is a string literal, `language' is a missing field
---they aren't the same literal types for entry Chrysos2012
while executing---line 2075 of file ugost2008.bst
Warning--yChrysos  G   2012   Inteltextregistered Xeon Phi coprocessor codename Knights Corner
"russian" is a string literal, `language' is a missing field
---they aren't the same literal types for entry Movchan2015
while executing---line 2075 of file ugost2008.bst
Warning--yMovchan  A   Zymbler  M L   2015   Time Series Subsequence Similarity Search Under Dynamic Time Warping Distance on the Intel Many core Accelerators
"russian" is a string literal, `language' is a missing field
---they aren't the same literal types for entry Zymbler2015
while executing---line 2075 of file ugost2008.bst
Warning--yZymbler  M L   2015   Best Match Time Series Subsequence Search on the Intel Many Integrated Core Architecture
"russian" is a string literal, `language' is a missing field
---they aren't the same literal types for entry Tarango2013
while executing---line 2075 of file ugost2008.bst
Warning--yTarango  J   Keogh  E J   Brisk  P   2013   Instruction set extensions for Dynamic Time Warping
"russian" is a string literal, `language' is a missing field
---they aren't the same literal types for entry Keogh2005
while executing---line 2075 of file ugost2008.bst
Warning--yKeogh  E J   Ratanamahatana  C A   2005   Exact indexing of dynamic time warping
"russian" is a string literal, `language' is a missing field
---they aren't the same literal types for entry Sakoe1990
while executing---line 2075 of file ugost2008.bst
Warning--ySakoe  H   Chiba  S   1990   Readings in Speech Recognition
"russian" is a string literal, `language' is a missing field
---they aren't the same literal types for entry Jeffers2013
while executing---line 2075 of file ugost2008.bst
Warning--yJeffers  J   Reinders  J   2013   Intel Xeon Phi Coprocessor High Performance Programming
"russian" is a string literal, `language' is a missing field
---they aren't the same literal types for entry Lemire2009
while executing---line 2075 of file ugost2008.bst
Warning--yLemire  D   2009   Faster Retrieval with a Two pass Dynamic time warping Lower Bound
Reallocated singl_function (elt_size=4) to 100 items from 50.
Warning--empty booktitle in Sakoe1990
Warning--empty year in StaffordInsect
You've used 25 entries,
            4404 wiz_defined-function locations,
            1396 strings with 18150 characters,
and the built_in function-call counts, 15674 in all, are:
= -- 1920
> -- 571
< -- 37
+ -- 227
- -- 175
* -- 1133
:= -- 1958
add.period$ -- 133
call.type$ -- 25
change.case$ -- 0
chr.to.int$ -- 0
cite$ -- 27
duplicate$ -- 667
empty$ -- 1335
format.name$ -- 185
if$ -- 3862
int.to.chr$ -- 0
int.to.str$ -- 26
missing$ -- 0
newline$ -- 199
num.names$ -- 86
pop$ -- 260
preamble$ -- 1
purify$ -- 139
quote$ -- 0
skip$ -- 638
stack$ -- 0
substring$ -- 924
swap$ -- 507
text.length$ -- 12
text.prefix$ -- 0
top$ -- 0
type$ -- 0
warning$ -- 27
while$ -- 122
width$ -- 27
write$ -- 451
(There were 46 error messages)
