\relax 
\providecommand\hyper@newdestlabel[2]{}
\catcode `"\active 
\providecommand\HyperFirstAtBeginDocument{\AtBeginDocument}
\HyperFirstAtBeginDocument{\ifx\hyper@anchor\@undefined
\global\let\oldcontentsline\contentsline
\gdef\contentsline#1#2#3#4{\oldcontentsline{#1}{#2}{#3}}
\global\let\oldnewlabel\newlabel
\gdef\newlabel#1#2{\newlabelxx{#1}#2}
\gdef\newlabelxx#1#2#3#4#5#6{\oldnewlabel{#1}{{#2}{#3}}}
\AtEndDocument{\ifx\hyper@anchor\@undefined
\let\contentsline\oldcontentsline
\let\newlabel\oldnewlabel
\fi}
\fi}
\global\let\hyper@last\relax 
\gdef\HyperFirstAtBeginDocument#1{#1}
\providecommand\HyField@AuxAddToFields[1]{}
\providecommand\HyField@AuxAddToCoFields[2]{}
\select@language{russian}
\@writefile{toc}{\select@language{russian}}
\@writefile{lof}{\select@language{russian}}
\@writefile{lot}{\select@language{russian}}
\citation{MueenKS09}
\citation{AthitsosPPKG08}
\citation{XiKSWR06}
\citation{KeoghLin2005}
\citation{Rakthanmanon2012}
\citation{StaffordInsect}
\citation{HuangDSWWY13}
\citation{Ding2008}
\citation{Fu2008}
\citation{Ding2008}
\citation{Kim2001}
\citation{Rakthanmanon2012}
\citation{Sart2010}
\citation{Zhang2012}
\citation{Shabib2015}
\citation{Takahashi2009}
\citation{Srikanthan2011}
\citation{Zhang2012}
\citation{Sart2010}
\citation{Wang2013}
\@writefile{toc}{\contentsline {section}{Введение}{5}{Item.14}}
\citation{Sodani2015}
\citation{Chrysos2012}
\citation{Movchan2015}
\citation{Zymbler2015}
\citation{Takahashi2009}
\citation{Srikanthan2011}
\citation{Sart2010}
\citation{Zhang2012}
\@writefile{toc}{\contentsline {section}{\numberline {1}Обзор работ по тематике исследования}{9}{section.1}}
\newlabel{sec:Background}{{1}{9}{Обзор работ по тематике исследования}{section.1}{}}
\citation{Wang2013}
\citation{HuangDSWWY13}
\citation{Wang2013}
\citation{Shabib2015}
\citation{Movchan2015}
\citation{Zymbler2015}
\citation{Rakthanmanon2012}
\@writefile{toc}{\contentsline {section}{\numberline {2}Формальные обозначения и постановка задачи}{11}{section.2}}
\newlabel{sec:Definition}{{2}{11}{Формальные обозначения и постановка задачи}{section.2}{}}
\@writefile{toc}{\contentsline {subsection}{\numberline {2.1}Формальные обозначения}{11}{subsection.2.1}}
\newlabel{subsec:fotmalDefinition}{{2.1}{11}{Формальные обозначения}{subsection.2.1}{}}
\newlabel{eq:DTW}{{1}{11}{Формальные обозначения}{equation.2.1}{}}
\citation{Fu2008}
\citation{Ding2008}
\citation{Kim2001}
\newlabel{eq:DTW_distance}{{2}{12}{Формальные обозначения}{equation.2.2}{}}
\@writefile{toc}{\contentsline {subsection}{\numberline {2.2}Последовательный алгоритм UCR-DTW}{12}{subsection.2.2}}
\newlabel{subsec:UCR-DTW}{{2.2}{12}{Последовательный алгоритм UCR-DTW}{subsection.2.2}{}}
\citation{Rakthanmanon2012}
\citation{Rakthanmanon2012}
\citation{Tarango2013}
\newlabel{eq:bsf}{{4}{13}{Последовательный алгоритм UCR-DTW}{equation.2.4}{}}
\newlabel{eq:local_min}{{5}{13}{Последовательный алгоритм UCR-DTW}{equation.2.5}{}}
\citation{Rakthanmanon2012}
\citation{Keogh2005}
\citation{Sakoe1990}
\newlabel{eq:Normalization}{{8}{14}{Последовательный алгоритм UCR-DTW}{equation.2.8}{}}
\newlabel{eq:Normalization}{{9}{14}{Последовательный алгоритм UCR-DTW}{equation.2.9}{}}
\newlabel{eq:Envelope}{{10}{14}{Последовательный алгоритм UCR-DTW}{equation.2.10}{}}
\newlabel{eq:LB_Keogh}{{11}{15}{Последовательный алгоритм UCR-DTW}{equation.2.11}{}}
\citation{Jeffers2013}
\citation{Rakthanmanon2012}
\@writefile{toc}{\contentsline {section}{\numberline {3}Параллельный алгоритм phiBestMatch}{16}{section.3}}
\newlabel{sec:Design}{{3}{16}{Параллельный алгоритм phiBestMatch}{section.3}{}}
\@writefile{loa}{\contentsline {algorithm}{\numberline {1}{\ignorespaces \textsc  {phiBestMatch}(\textsc  {in} $\mathbf  {Q}$, $\mathbf  {T}$, $\mathbf  {r}$, $\mathbf  {k}$, $\mathbf  {p}$; \textsc  {out} $\mathbf  {bsf_{local}}$, $\mathbf  {index}$)\relax }}{17}{algorithm.1}}
\providecommand*\caption@xref[2]{\@setref\relax\@undefined{#1}}
\newlabel{alg:phiBestMatch}{{1}{17}{\textsc {phiBestMatch}(\textsc {in} $\mathbf {Q}$, $\mathbf {T}$, $\mathbf {r}$, $\mathbf {k}$, $\mathbf {p}$; \textsc {out} $\mathbf {bsf_{local}}$, $\mathbf {index}$)\relax }{algorithm.1}{}}
\citation{Lemire2009}
\@writefile{toc}{\contentsline {subsection}{\numberline {3.1}Модуль Block'n'Pad}{18}{subsection.3.1}}
\newlabel{eq:MatrixC}{{12}{18}{Модуль Block'n'Pad}{equation.3.12}{}}
\@writefile{toc}{\contentsline {subsection}{\numberline {3.2}Модуль CalculateLB}{18}{subsection.3.2}}
\@writefile{loa}{\contentsline {algorithm}{\numberline {2}{\ignorespaces \textsc  {CalculateLB}(\textsc  {in} $\mathbf  {Matrix_{C}}$, $\mathbf  {Q}$; \textsc  {out} $\mathbf  {lb1}$, $\mathbf  {lb2}$, $\mathbf  {lb3}$)\relax }}{19}{algorithm.2}}
\newlabel{alg:CalculateLB}{{2}{19}{\textsc {CalculateLB}(\textsc {in} $\mathbf {Matrix_{C}}$, $\mathbf {Q}$; \textsc {out} $\mathbf {lb1}$, $\mathbf {lb2}$, $\mathbf {lb3}$)\relax }{algorithm.2}{}}
\@writefile{toc}{\contentsline {subsection}{\numberline {3.3}Модуль LowerBounding}{19}{subsection.3.3}}
\newlabel{eq:BM}{{13}{19}{Модуль LowerBounding}{equation.3.13}{}}
\newlabel{eq:conjunction_BM}{{14}{19}{Модуль LowerBounding}{equation.3.14}{}}
\@writefile{loa}{\contentsline {algorithm}{\numberline {3}{\ignorespaces \textsc  {LowerBounding}(\textsc  {in} $\mathbf  {lb1}$, $\mathbf  {lb2}$, $\mathbf  {lb3}$; \textsc  {out} $\mathbf  {BM}$)\relax }}{20}{algorithm.3}}
\newlabel{alg:LowerBounding}{{3}{20}{\textsc {LowerBounding}(\textsc {in} $\mathbf {lb1}$, $\mathbf {lb2}$, $\mathbf {lb3}$; \textsc {out} $\mathbf {BM}$)\relax }{algorithm.3}{}}
\@writefile{toc}{\contentsline {subsection}{\numberline {3.4}Модуль FillMatrixDTW}{20}{subsection.3.4}}
\citation{Movchan2015}
\citation{Zymbler2015}
\@writefile{toc}{\contentsline {subsection}{\numberline {3.5}Модуль CalculateDTW}{21}{subsection.3.5}}
\@writefile{loa}{\contentsline {algorithm}{\numberline {4}{\ignorespaces \textsc  {CalculateDTW}(\textsc  {in} $\mathbf  {MDTW}$, $\mathbf  {Index_{C}}$, $\mathbf  {Q}$, $\mathbf  {r}$; \textsc  {out} $\mathbf  {bsf_{local}}$, $\mathbf  {index}$)\relax }}{21}{algorithm.4}}
\newlabel{alg:CalculateDTW}{{4}{21}{\textsc {CalculateDTW}(\textsc {in} $\mathbf {MDTW}$, $\mathbf {Index_{C}}$, $\mathbf {Q}$, $\mathbf {r}$; \textsc {out} $\mathbf {bsf_{local}}$, $\mathbf {index}$)\relax }{algorithm.4}{}}
\@writefile{toc}{\contentsline {section}{\numberline {4}Вычислительные эксперименты}{22}{section.4}}
\newlabel{sec:Experiments}{{4}{22}{Вычислительные эксперименты}{section.4}{}}
\@writefile{toc}{\contentsline {subsection}{\numberline {4.1}Аппаратная платформа}{22}{subsection.4.1}}
\newlabel{subsec:Hardware}{{4.1}{22}{Аппаратная платформа}{subsection.4.1}{}}
\@writefile{lot}{\contentsline {table}{\numberline {1}{\ignorespaces Спецификация вычислительного узла суперкомпьютера <<Торнадо ЮУрГУ>>\relax }}{22}{table.caption.1}}
\newlabel{tab:Hardware}{{1}{22}{Спецификация вычислительного узла суперкомпьютера <<Торнадо ЮУрГУ>>\relax }{table.caption.1}{}}
\@writefile{toc}{\contentsline {section}{Заключение}{23}{table.caption.1}}
\bibstyle{ugost2008}
\bibdata{diploma}
\bibcite{AthitsosPPKG08}{1}
\bibcite{Chrysos2012}{2}
\bibcite{Fu2008}{3}
\bibcite{HuangDSWWY13}{4}
\bibcite{Ding2008}{5}
\bibcite{Jeffers2013}{6}
\bibcite{KeoghLin2005}{7}
\bibcite{Keogh2005}{8}
\@writefile{toc}{\contentsline {section}{\uppercase {Литература}}{24}{section*.2}}
\bibcite{Kim2001}{9}
\bibcite{Lemire2009}{10}
\bibcite{Movchan2015}{11}
\bibcite{MueenKS09}{12}
\bibcite{Rakthanmanon2012}{13}
\bibcite{Sakoe1990}{14}
\bibcite{Sart2010}{15}
\bibcite{Shabib2015}{16}
\bibcite{Sodani2015}{17}
\bibcite{Srikanthan2011}{18}
\bibcite{StaffordInsect}{19}
\bibcite{Takahashi2009}{20}
\bibcite{Tarango2013}{21}
\bibcite{Wang2013}{22}
\bibcite{XiKSWR06}{23}
\bibcite{Zhang2012}{24}
\bibcite{Zymbler2015}{25}
\newlabel{LastPage}{{}{27}{}{page.27}{}}
\xdef\lastpage@lastpage{27}
\xdef\lastpage@lastpageHy{27}
\expandafter\ifx\csname c@bibitems@totc\endcsname\relax\newcounter{bibitems@totc}\fi\setcounter{bibitems@totc}{25}
